<?xml version="1.0" encoding="UTF-8"?>
<svg width="24px" height="24px" viewBox="0 0 24 24" version="1.1" xmlns="http://www.w3.org/2000/svg" xmlns:xlink="http://www.w3.org/1999/xlink">
    <title>icons/check</title>
    <g id="icons/check" stroke="none" stroke-width="1" fill="none" fill-rule="evenodd">
        <g id="bx-check" transform="translate(5.000000, 6.000000)" fill="#616E7C" fill-rule="nonzero">
            <polygon id="Path" points="5 8.586 1.707 5.293 0.293 6.707 5 11.414 14.707 1.707 13.293 0.293"></polygon>
        </g>
    </g>
</svg>