<?xml version="1.0" encoding="UTF-8"?>
<svg width="24px" height="24px" viewBox="0 0 24 24" version="1.1" xmlns="http://www.w3.org/2000/svg" xmlns:xlink="http://www.w3.org/1999/xlink">
    <title>icons/copy</title>
    <g id="icons/copy" stroke="none" stroke-width="1" fill="none" fill-rule="evenodd">
        <path d="M14,8 C15.103,8 16,8.897 16,10 L16,10 L16,20 C16,21.103 15.103,22 14,22 L14,22 L4,22 C2.897,22 2,21.103 2,20 L2,20 L2,10 C2,8.897 2.897,8 4,8 L4,8 Z M12,16 L6,16 L6,18 L12,18 L12,16 Z M20,2 C21.1045695,2 22,2.8954305 22,4 L22,4 L22,14 C22,15.1045695 21.1045695,16 20,16 L20,16 L18,16 L18,8 C18,6.8954305 17.1045695,6 16,6 L16,6 L8,6 L8,4 C8,2.8954305 8.8954305,2 10,2 L10,2 Z M12,12 L6,12 L6,14 L12,14 L12,12 Z" id="Combined-Shape" fill="#C1C3C5" fill-rule="nonzero"></path>
    </g>
</svg>