<?xml version="1.0" encoding="UTF-8"?>
<svg width="24px" height="24px" viewBox="0 0 24 24" version="1.1" xmlns="http://www.w3.org/2000/svg" xmlns:xlink="http://www.w3.org/1999/xlink">
    <title>icons/plus</title>
    <g id="icons/plus" stroke="none" stroke-width="1" fill="none" fill-rule="evenodd">
        <g id="bx-plus" transform="translate(5.000000, 5.000000)" fill="#9AA5B1" fill-rule="nonzero">
            <polygon id="Path" points="14 6 8 6 8 0 6 0 6 6 0 6 0 8 6 8 6 14 8 14 8 8 14 8"></polygon>
        </g>
    </g>
</svg>