<?xml version="1.0" encoding="UTF-8"?>
<svg width="24px" height="24px" viewBox="0 0 24 24" version="1.1" xmlns="http://www.w3.org/2000/svg" xmlns:xlink="http://www.w3.org/1999/xlink">
    <title>icons/whatsapp</title>
    <g id="icons/whatsapp" stroke="none" stroke-width="1" fill="none" fill-rule="evenodd">
        <path d="M12.0334055,4 C14.1645212,4.00084667 16.1647714,4.82657333 17.6688413,6.32515333 C19.1729515,7.82374 20.0008225,9.81573333 20,11.9341933 C19.9982511,16.2231533 16.5577119,19.7280143 12.2811466,19.8587463 L12.0334926,19.8625267 L12.0302313,19.8625267 C10.696892,19.86198 9.38680329,19.5291133 8.22321012,18.8975133 L4,20 L5.13019707,15.8915267 C4.43306442,14.6892333 4.06622968,13.3252133 4.06679889,11.9278667 C4.06856011,7.55642667 7.64235106,4 12.0334055,4 Z M12.036111,5.33905333 C8.38373505,5.33905333 5.41332393,8.29500667 5.41186351,11.92838 C5.41135512,13.1734867 5.76143489,14.38616 6.42424731,15.4353667 L6.58170519,15.6846667 L5.91277205,18.1163733 L8.41886558,17.46212 L8.66066083,17.6049533 C9.67727635,18.20538 10.8426441,18.52302 12.0307738,18.52348 L12.0334859,18.52348 C15.6830626,18.52348 18.653447,15.5673133 18.6549274,11.9336933 C18.6556033,10.1729 17.9675178,8.51722667 16.7173639,7.27165333 C15.4672101,6.02608 13.8046912,5.33972667 12.036111,5.33905333 Z M9.21299224,8.26657333 C9.34569267,8.26657333 9.47852704,8.26778667 9.59449929,8.27353333 C9.71668602,8.27958667 9.88080035,8.22732 10.0423633,8.61362 C10.2082522,9.01025333 10.6063401,9.98533333 10.6561095,10.0844867 C10.7058721,10.1836467 10.7390539,10.2993333 10.672697,10.4315533 C10.6063535,10.5637533 10.5731717,10.6463867 10.4736531,10.7620733 C10.374121,10.87776 10.264611,11.02038 10.1750771,11.1091333 C10.0754312,11.20788 9.97166693,11.3151133 10.0877798,11.5134333 C10.2038927,11.7117533 10.6034204,12.3605467 11.1951481,12.8858067 C11.9554567,13.5607133 12.5968467,13.76992 12.7959107,13.8690667 C12.9949547,13.96824 13.1110742,13.9517 13.2271737,13.81948 C13.3432933,13.68728 13.7247736,13.2410467 13.8574606,13.0427467 C13.9901677,12.8444267 14.1228548,12.87748 14.3053112,12.94358 C14.4877877,13.0096733 15.46644,13.48896 15.665504,13.5881067 C15.864548,13.68728 15.9972618,13.7368667 16.0470044,13.81948 C16.0967738,13.90212 16.0967738,14.29876 15.9309049,14.7615067 C15.765016,15.2242533 14.9697509,15.6466533 14.5873197,15.7035133 C14.2443384,15.7545133 13.8104034,15.7757733 13.3335229,15.6250333 C13.0444561,15.5336867 12.673657,15.41182 12.1987453,15.20772 C10.2019306,14.3496133 8.89782201,12.3486333 8.79830338,12.2164133 C8.69877135,12.0841933 7.98550651,11.1421867 7.98550651,10.1671267 C7.98550651,9.19206667 8.4997207,8.71278667 8.6821771,8.51446 C8.8646469,8.31614667 9.0802918,8.26657333 9.21299224,8.26657333 Z" id="Combined-Shape" fill="#24D366" fill-rule="nonzero"></path>
    </g>
</svg>