<?xml version="1.0" encoding="UTF-8"?>
<svg width="48px" height="48px" viewBox="0 0 48 48" version="1.1" xmlns="http://www.w3.org/2000/svg" xmlns:xlink="http://www.w3.org/1999/xlink">
    <title>emojis/bomb</title>
    <defs>
        <radialGradient cx="50%" cy="-4.65912417%" fx="50%" fy="-4.65912417%" r="109.982022%" id="radialGradient-1">
            <stop stop-color="#5C5C5B" offset="0%"></stop>
            <stop stop-color="#32302E" offset="45.571976%"></stop>
            <stop stop-color="#070707" offset="100%"></stop>
        </radialGradient>
    </defs>
    <g id="emojis/bomb" stroke="none" stroke-width="1" fill="none" fill-rule="evenodd">
        <rect id="Rectangle" fill-opacity="0" fill="#FFFFFF" x="0" y="0" width="48" height="48"></rect>
        <path d="M36,11 C35.4477153,11 35,10.5522847 35,10 L35,8 C35,5.23857625 32.7614237,3 30,3 C27.2385763,3 25,5.23857625 25,8 C25,8.55228475 24.5522847,9 24,9 C23.4477153,9 23,8.55228475 23,8 C23,4.13400675 26.1340068,1 30,1 C33.8659932,1 37,4.13400675 37,8 L37,10 C37,10.5522847 36.5522847,11 36,11 Z" id="Path" fill="#A67C52" fill-rule="nonzero"></path>
        <path d="M28,16 L20,16 C19.4477153,16 19,15.5522847 19,15 L19,10 C19,8.34314575 20.3431458,7 22,7 L26,7 C27.6568542,7 29,8.34314575 29,10 L29,15 C29,15.5522847 28.5522847,16 28,16 Z" id="Path" fill="#C6C6C6" fill-rule="nonzero"></path>
        <path d="M24,47 C14.6111593,47 7,39.3888407 7,30 C7,20.6111593 14.6111593,13 24,13 C33.3888407,13 41,20.6111593 41,30 C40.989529,39.3845001 33.3845001,46.989529 24,47 L24,47 Z" id="Path" fill="url(#radialGradient-1)"></path>
        <path d="M14,27 C13.692659,26.9997625 13.402498,26.8582111 13.2131338,26.6161373 C13.0237696,26.3740635 12.9562381,26.0583583 13.03,25.76 C13.8026351,22.978236 15.976236,20.8046351 18.758,20.032 C19.1078693,19.9360565 19.48226,20.0371249 19.7363171,20.2961012 C19.9903742,20.5550774 20.0842452,20.9313372 19.9816106,21.2793025 C19.878976,21.6272677 19.5959356,21.8923551 19.242,21.972 C17.173841,22.5621346 15.557683,24.1794274 14.969,26.248 C14.8556996,26.6905845 14.4568567,27.0001096 14,27 Z" id="Path" fill="#FFFFFF" fill-rule="nonzero"></path>
    </g>
</svg>