<?xml version="1.0" encoding="UTF-8"?>
<svg width="48px" height="48px" viewBox="0 0 48 48" version="1.1" xmlns="http://www.w3.org/2000/svg" xmlns:xlink="http://www.w3.org/1999/xlink">
    <title>emojis/medal</title>
    <defs>
        <radialGradient cx="50%" cy="-10.3494904%" fx="50%" fy="-10.3494904%" r="119.910638%" id="radialGradient-1">
            <stop stop-color="#FFFFFF" offset="0%"></stop>
            <stop stop-color="#FFD138" offset="55.7374921%"></stop>
            <stop stop-color="#F8A910" offset="100%"></stop>
        </radialGradient>
    </defs>
    <g id="emojis/medal" stroke="none" stroke-width="1" fill="none" fill-rule="evenodd">
        <rect id="Rectangle" fill-opacity="0" fill="#FFFFFF" x="0" y="0" width="48" height="48"></rect>
        <g id="gold-coin" transform="translate(1.000000, 1.000000)">
            <circle id="Oval" fill="url(#radialGradient-1)" cx="23" cy="23" r="23"></circle>
            <path d="M23,2 C11.4020203,2 2,11.4020203 2,23 C2,34.5979797 11.4020203,44 23,44 C34.5979797,44 44,34.5979797 44,23 C44,17.4304537 41.7875064,12.0890215 37.8492424,8.1507576 C33.9109785,4.21249365 28.5695463,2 23,2 Z M23,42 C12.5065898,42 4,33.4934102 4,23 C4,12.5065898 12.5065898,4 23,4 C33.4934102,4 42,12.5065898 42,23 C42,28.0391133 39.99822,32.8718377 36.4350288,36.4350288 C32.8718377,39.99822 28.0391133,42 23,42 Z" id="Shape" fill="#D3A133" fill-rule="nonzero"></path>
            <path d="M23,39 C22.4477153,39 22,38.5522847 22,38 L22,35 C22,34.4477153 22.4477153,34 23,34 C23.5522847,34 24,34.4477153 24,35 L24,38 C24,38.5522847 23.5522847,39 23,39 Z" id="Path" fill="#D3A133" fill-rule="nonzero"></path>
            <path d="M38.217,27.944 C38.0463172,28.4691999 37.48222,28.7566208 36.957,28.586 L34.1,27.659 C33.7452921,27.5610144 33.4730612,27.2761321 33.3912783,26.9173419 C33.3094954,26.5585517 33.4313769,26.1838352 33.7085827,25.9418107 C33.9857884,25.6997863 34.3735212,25.6295659 34.718,25.759 L37.571,26.686 C38.0967635,26.8550128 38.3859813,27.4182264 38.217,27.944 Z" id="Path" fill="#D3A133" fill-rule="nonzero"></path>
            <path d="M32.405,10.056 C32.6204492,10.2119754 32.7648826,10.4473571 32.8063562,10.7100863 C32.8478299,10.9728154 32.7829263,11.2412424 32.626,11.456 L30.862,13.88 C30.536152,14.3267983 29.9097984,14.424848 29.463,14.099 C29.0162017,13.773152 28.918152,13.1467984 29.244,12.7 L31.008,10.273 C31.3339491,9.82747235 31.9592603,9.73034099 32.405,10.056 L32.405,10.056 Z" id="Path" fill="#D3A133" fill-rule="nonzero"></path>
            <path d="M13.6,10.056 C13.8147576,9.89907369 14.0831846,9.8341701 14.3459137,9.87564377 C14.6086429,9.91711745 14.8440246,10.0615508 15,10.277 L16.756,12.7 C17.0807434,13.1467984 16.9817983,13.7722565 16.535,14.097 C16.0882016,14.4217434 15.4627434,14.3227983 15.138,13.876 L13.374,11.449 C13.0529713,11.0016359 13.1540003,10.3789216 13.6,10.056 Z" id="Path" fill="#D3A133" fill-rule="nonzero"></path>
            <path d="M7.783,27.944 C7.61237917,27.41878 7.89980011,26.8546828 8.425,26.684 L11.278,25.757 C11.6224788,25.6275659 12.0102116,25.6977863 12.2874173,25.9398107 C12.5646231,26.1818352 12.6865046,26.5565517 12.6047217,26.9153419 C12.5229388,27.2741321 12.2507079,27.5590144 11.896,27.657 L9.043,28.584 C8.51836184,28.7547915 7.95452578,28.4683985 7.783,27.944 L7.783,27.944 Z" id="Path" fill="#D3A133" fill-rule="nonzero"></path>
            <path d="M29.181,32.478 C29.0188489,32.478 28.8591898,32.4380897 28.716,32.362 L23,29.362 L17.284,32.362 C16.9473549,32.5383723 16.5398296,32.5086713 16.2323146,32.2853518 C15.9247995,32.0620322 15.7704537,31.6836986 15.834,31.309 L16.926,24.944 L12.3,20.438 C12.0272495,20.1723579 11.9290091,19.77488 12.0466024,19.4127607 C12.1641956,19.0506414 12.4772179,18.7867154 12.854,18.732 L19.244,17.804 L22.102,12.014 C22.288566,11.696216 22.6294983,11.5010276 22.998,11.5010276 C23.3665017,11.5010276 23.707434,11.696216 23.894,12.014 L26.752,17.804 L33.142,18.732 C33.5187821,18.7867154 33.8318044,19.0506414 33.9493976,19.4127607 C34.0669909,19.77488 33.9687505,20.1723579 33.696,20.438 L29.072,24.944 L30.164,31.309 C30.2137977,31.599422 30.1329751,31.8970235 29.9431085,32.1223575 C29.753242,32.3476915 29.4736603,32.478 29.179,32.478 L29.181,32.478 Z" id="Path" fill="#D3A133" fill-rule="nonzero"></path>
        </g>
    </g>
</svg>