<?xml version="1.0" encoding="UTF-8"?>
<svg width="48px" height="48px" viewBox="0 0 48 48" version="1.1" xmlns="http://www.w3.org/2000/svg" xmlns:xlink="http://www.w3.org/1999/xlink">
    <title>emojis/mindblowing</title>
    <defs>
        <radialGradient cx="50%" cy="16.3330078%" fx="50%" fy="16.3330078%" r="100%" gradientTransform="translate(0.500000,0.163330),scale(0.714552,1.000000),rotate(90.000000),translate(-0.500000,-0.163330)" id="radialGradient-1">
            <stop stop-color="#FFFFFF" offset="0%"></stop>
            <stop stop-color="#FFD138" offset="22.7169552%"></stop>
            <stop stop-color="#F8A910" offset="100%"></stop>
        </radialGradient>
    </defs>
    <g id="emojis/mindblowing" stroke="none" stroke-width="1" fill="none" fill-rule="evenodd">
        <rect id="Rectangle" fill-opacity="0" fill="#FFFFFF" x="0" y="0" width="48" height="48"></rect>
        <g id="mind-blown" transform="translate(3.000000, 2.000000)">
            <path d="M32.5,4 C32.0188459,4.00145392 31.5400078,4.06668888 31.076,4.194 C28.6834335,1.64770389 24.7738419,1.26992217 21.938,3.311 C20.6938228,1.29914944 18.5159595,0.0536899332 16.151048,0.00160292857 C13.7861365,-0.0504840761 11.5555494,1.09787963 10.224,3.053 C9.9840723,3.01964276 9.74222768,3.00193867 9.5,3 C7.14408061,2.99731893 5.04809782,4.49542146 4.28792101,6.72533056 C3.5277442,8.95523965 4.2722211,11.4216559 6.13921123,12.8585662 C8.00620136,14.2954765 10.5810156,14.3837195 12.542,13.078 C14.9076588,14.4359127 17.849079,14.2837568 20.062,12.689 C21.1018264,14.3752579 22.8101833,15.5392719 24.7599711,15.8900314 C26.7097589,16.2407909 28.7166829,15.7451421 30.279,14.527 C32.3286843,15.4368207 34.7254846,15.0111067 36.3364813,13.4510845 C37.947478,11.8910623 38.4500098,9.50918371 37.60654,7.43131505 C36.7630702,5.35344638 34.7425346,3.99575718 32.5,4 Z" id="Path" fill="#DAD7D7" fill-rule="nonzero"></path>
            <path d="M25,14.077 C24.9964175,13.0053083 25.1373538,11.9380267 25.419,10.904 C23.8973545,11.2254101 22.3181392,10.731337 21.251,9.6 C20.3491793,11.086263 18.7384589,11.9956323 17,12 C16.5046036,11.9930231 16.0130862,11.9114407 15.542,11.758 C15.8219007,12.4846376 15.9630076,13.2573335 15.958,14.036 C15.9397775,15.6235491 15.3378444,17.1488497 14.267,18.321 C13.9973223,18.6125764 13.9257592,19.0361104 14.0846674,19.4001035 C14.2435757,19.7640966 14.6028317,19.9995482 15,20 L25,20 C25.3341761,19.9998887 25.6462108,19.8328594 25.8316247,19.554839 C26.0170386,19.2768185 26.0513236,18.9245559 25.923,18.616 C25.322988,17.1774501 25.0094623,15.6356374 25,14.077 L25,14.077 Z" id="Path" fill="#EA9860" fill-rule="nonzero"></path>
            <path d="M41.347,18.882 C41.2637157,18.5507259 41.0171002,18.2848789 40.693,18.177 L34.316,16.051 C34.0836425,15.9737349 33.8310115,15.9844094 33.606,16.081 L27.063,18.881 L20.5,15.132 C20.253164,14.9907683 19.9578711,14.9613117 19.688,15.051 L11.035,17.936 L6.375,16.071 C6.09181029,15.9581134 5.77259324,15.9805727 5.508,16.132 L1.014,18.7 C0.770639239,18.8396155 0.596638697,19.0745163 0.534,19.348 C-1.25650779,27.2112929 1.61527838,35.4052144 7.92287541,40.4303027 C14.2304724,45.455391 22.8589402,46.4234041 30.1232308,42.9209228 C37.3875213,39.4184415 42.003588,32.0645694 42.0000021,24 C41.9922871,22.273726 41.7729849,20.5549072 41.347,18.882 Z" id="Path" fill="url(#radialGradient-1)"></path>
            <circle id="Oval" fill="#444444" fill-rule="nonzero" cx="30" cy="25" r="3"></circle>
            <circle id="Oval" fill="#444444" fill-rule="nonzero" cx="12" cy="25" r="3"></circle>
            <path d="M21,42 C18.9776888,42 17.1545073,40.7817891 16.3806023,38.9134172 C15.6066973,37.0450452 16.0344761,34.8944561 17.4644661,33.4644661 C18.8944561,32.0344761 21.0450452,31.6066973 22.9134172,32.3806023 C24.7817891,33.1545073 26,34.9776888 26,37 C25.9966939,39.7600532 23.7600532,41.9966939 21,42 L21,42 Z" id="Path" fill="#AE453E" fill-rule="nonzero"></path>
            <ellipse id="Oval" fill="#FA645A" fill-rule="nonzero" cx="21" cy="40" rx="3.974" ry="2"></ellipse>
        </g>
    </g>
</svg>