<?xml version="1.0" encoding="UTF-8"?>
<svg width="48px" height="48px" viewBox="0 0 48 48" version="1.1" xmlns="http://www.w3.org/2000/svg" xmlns:xlink="http://www.w3.org/1999/xlink">
    <title>emojis/trophy</title>
    <defs>
        <radialGradient cx="50%" cy="-10.3494904%" fx="50%" fy="-10.3494904%" r="127.90468%" gradientTransform="translate(0.500000,-0.103495),scale(1.000000,0.937500),rotate(89.999999),translate(-0.500000,0.103495)" id="radialGradient-1">
            <stop stop-color="#FFFFFF" offset="0%"></stop>
            <stop stop-color="#FFD138" offset="55.7374921%"></stop>
            <stop stop-color="#F8A910" offset="100%"></stop>
        </radialGradient>
    </defs>
    <g id="emojis/trophy" stroke="none" stroke-width="1" fill="none" fill-rule="evenodd">
        <rect id="Rectangle" fill-opacity="0" fill="#FFFFFF" x="0" y="0" width="48" height="48"></rect>
        <g id="trophy" transform="translate(2.000000, 2.000000)">
            <path d="M10,19 C6.14062,19 3,15.85986 3,12 L3,7 L10,7 L10,4 L1,4 C0.44769,4 0,4.44769 0,5 L0,12 C0,17.52283 4.47717,22 10,22 L10,19 Z" id="Path" fill="#F9AF16" fill-rule="nonzero"></path>
            <path d="M34,19 C37.85938,19 41,15.85986 41,12 L41,7 L34,7 L34,4 L43,4 C43.55231,4 44,4.44769 44,5 L44,12 C44,17.52283 39.52283,22 34,22 L34,19 Z" id="Path" fill="#F9AF16" fill-rule="nonzero"></path>
            <path d="M29,40 L28,40 C25.79083,40 24,38.20911 24,36 L24,28 L20,28 L20,36 C20,38.20911 18.20917,40 16,40 L15,40 C13.34314,40 12,41.34314 12,43 L12,44 L32,44 L32,43 C32,41.34314 30.65686,40 29,40 Z" id="Path" fill="#F9AF16" fill-rule="nonzero"></path>
            <path d="M22,32 C13.72852,32 7,25.271 7,17 L7,1 C7,0.44775 7.44727,0 8,0 L36,0 C36.55273,0 37,0.44775 37,1 L37,17 C37,25.271 30.27148,32 22,32 Z" id="Path" fill="url(#radialGradient-1)"></path>
        </g>
    </g>
</svg>